<?xml version="1.0" encoding="utf-8"?>
<!-- Generator: Adobe Illustrator 16.0.0, SVG Export Plug-In . SVG Version: 6.00 Build 0)  -->
<!DOCTYPE svg PUBLIC "-//W3C//DTD SVG 1.1//EN" "http://www.w3.org/Graphics/SVG/1.1/DTD/svg11.dtd">
<svg version="1.1" id="Layer_1" xmlns="http://www.w3.org/2000/svg" xmlns:xlink="http://www.w3.org/1999/xlink" x="0px" y="0px"
	 width="50px" height="50px" viewBox="0 0 50 50" enable-background="new 0 0 50 50" xml:space="preserve">
<g>
	<path fill="#FFFFFF" d="M47.416,5.486c-0.764-0.763-1.678-1.144-2.748-1.144H5.75c-1.069,0-1.986,0.381-2.749,1.144
		C2.239,6.248,1.859,7.165,1.859,8.234v26.464c0,1.068,0.38,1.986,1.143,2.748c0.763,0.761,1.68,1.145,2.749,1.145h13.232
		c0,0.615-0.13,1.247-0.39,1.896s-0.52,1.217-0.778,1.702c-0.26,0.486-0.39,0.843-0.39,1.07c0,0.421,0.154,0.787,0.462,1.095
		c0.309,0.307,0.674,0.462,1.096,0.462h12.453c0.422,0,0.787-0.155,1.096-0.462c0.307-0.308,0.461-0.674,0.461-1.095
		c0-0.21-0.129-0.563-0.389-1.059c-0.26-0.494-0.52-1.069-0.779-1.725c-0.258-0.657-0.389-1.288-0.389-1.885h13.232
		c1.07,0,1.984-0.384,2.748-1.145c0.762-0.762,1.145-1.68,1.145-2.748V8.234C48.561,7.165,48.178,6.248,47.416,5.486L47.416,5.486z
		 M45.445,28.471c0,0.212-0.076,0.393-0.23,0.548c-0.154,0.153-0.338,0.229-0.547,0.229H5.75c-0.211,0-0.394-0.076-0.548-0.229
		c-0.153-0.155-0.23-0.336-0.23-0.548V8.234c0-0.212,0.076-0.393,0.23-0.548c0.154-0.152,0.337-0.23,0.548-0.23h38.917
		c0.211,0,0.393,0.078,0.547,0.23c0.154,0.155,0.23,0.336,0.23,0.548V28.471z M45.445,28.471"/>
</g>
</svg>
