<?xml version="1.0" encoding="utf-8"?>
<!-- Generator: Adobe Illustrator 16.0.0, SVG Export Plug-In . SVG Version: 6.00 Build 0)  -->
<!DOCTYPE svg PUBLIC "-//W3C//DTD SVG 1.1//EN" "http://www.w3.org/Graphics/SVG/1.1/DTD/svg11.dtd">
<svg version="1.1" id="Layer_1" xmlns="http://www.w3.org/2000/svg" xmlns:xlink="http://www.w3.org/1999/xlink" x="0px" y="0px"
	 width="272.5px" height="63.53px" viewBox="0 0 272.5 63.53" enable-background="new 0 0 272.5 63.53" xml:space="preserve">
<text transform="matrix(1 0 0 1 13.5391 51.0181)"><tspan x="0" y="0" fill="#FFFFFF" font-family="'Chalkboard-Bold'" font-size="55.52">Taalo</tspan><tspan x="140.976" y="0" fill="#F26522" font-family="'Chalkboard-Bold'" font-size="55.52">Mat</tspan></text>
</svg>
