<?xml version="1.0" encoding="utf-8"?>
<!-- Generator: Adobe Illustrator 16.0.0, SVG Export Plug-In . SVG Version: 6.00 Build 0)  -->
<!DOCTYPE svg PUBLIC "-//W3C//DTD SVG 1.1//EN" "http://www.w3.org/Graphics/SVG/1.1/DTD/svg11.dtd">
<svg version="1.1" id="Layer_1" xmlns="http://www.w3.org/2000/svg" xmlns:xlink="http://www.w3.org/1999/xlink" x="0px" y="0px"
	 width="220px" height="60px" viewBox="0 0 220 60" enable-background="new 0 0 220 60" xml:space="preserve">
<g>
	<path fill="#FFFFFF" d="M31.438,12.058c0.65,0.274,1.19,0.712,1.619,1.311c0.428,0.6,0.685,1.217,0.771,1.85
		c0.085,0.635-0.035,1.208-0.36,1.722c-0.326,0.514-0.899,0.857-1.722,1.028c-1.576,0.274-3.058,0.394-4.445,0.359
		c-1.388-0.034-2.595-0.052-3.623-0.052c0,4.111,0.017,8.154,0.052,12.128c0.034,3.975,0.017,8.171-0.052,12.59
		c0,0.959-0.326,1.652-0.976,2.081c-0.651,0.428-1.362,0.607-2.133,0.54c-0.771-0.069-1.482-0.378-2.132-0.926
		c-0.651-0.548-0.977-1.301-0.977-2.261c-0.034-4.042-0.051-8.067-0.051-12.076c0-4.008,0-8.033,0-12.076
		c-0.308,0-0.831,0.018-1.567,0.052c-0.737,0.034-1.542,0.043-2.415,0.025c-0.874-0.017-1.773-0.085-2.698-0.205
		c-0.925-0.12-1.73-0.351-2.416-0.694c-0.548-0.273-0.908-0.676-1.079-1.207c-0.172-0.531-0.18-1.07-0.025-1.619
		c0.154-0.547,0.437-1.062,0.848-1.541s0.925-0.805,1.542-0.977c2.878-0.171,5.661-0.231,8.351-0.18
		c2.689,0.051,5.421,0.077,8.196,0.077c0.822,0,1.645-0.009,2.467-0.026c0.822-0.017,1.661-0.025,2.518-0.025L31.438,12.058z"/>
	<path fill="#FFFFFF" d="M54.46,41.4c0.274,0.994,0.222,1.816-0.154,2.466c-0.377,0.65-0.899,1.088-1.567,1.311
		s-1.396,0.197-2.184-0.077c-0.789-0.274-1.474-0.822-2.056-1.644c-0.959,0.719-1.894,1.224-2.801,1.516
		c-0.908,0.29-1.945,0.453-3.109,0.488c-1.747,0.068-3.307-0.129-4.676-0.591c-1.371-0.463-2.527-1.156-3.469-2.082
		c-0.942-0.925-1.636-2.081-2.081-3.468c-0.446-1.388-0.6-2.989-0.462-4.805c0.068-0.754,0.197-1.49,0.385-2.21
		c0.188-0.72,0.402-1.421,0.643-2.107c0.273-0.753,0.659-1.559,1.156-2.415c0.496-0.855,1.002-1.593,1.516-2.209
		c1.85-2.262,4.163-3.889,6.938-4.882c0.479-0.172,1.13-0.325,1.953-0.463c0.822-0.137,1.652-0.196,2.492-0.18
		c0.839,0.018,1.645,0.128,2.416,0.334c0.771,0.205,1.344,0.565,1.721,1.079c0.309,0.411,0.531,0.771,0.668,1.079
		c0.137,0.309,0.214,0.634,0.231,0.977c0.017,0.343,0.017,0.711,0,1.104c-0.018,0.395-0.026,0.883-0.026,1.465
		c0,0.959-0.009,1.893-0.025,2.801c-0.018,0.907-0.009,1.824,0.025,2.749c0,0.308,0,0.711,0,1.207c0,0.497,0.017,1.021,0.052,1.567
		c0.034,0.549,0.077,1.071,0.128,1.567c0.051,0.497,0.128,0.899,0.231,1.208L54.46,41.4z M43.566,39.088
		c0.376-0.239,0.804-0.505,1.285-0.797c0.479-0.29,0.907-0.625,1.285-1.002c-0.309-1.815-0.488-3.631-0.54-5.447
		c-0.052-1.815-0.043-3.648,0.025-5.498c-1.542,0.274-2.929,0.942-4.162,2.004c-1.233,1.062-2.09,2.312-2.569,3.751
		c-0.206,0.583-0.377,1.183-0.514,1.799c-0.137,0.617-0.188,1.217-0.154,1.799c0.034,0.788,0.239,1.447,0.616,1.979
		s0.831,0.934,1.362,1.207c0.531,0.274,1.096,0.429,1.696,0.463C42.495,39.379,43.052,39.293,43.566,39.088z"/>
	<path fill="#FFFFFF" d="M80.41,41.4c0.274,0.994,0.222,1.816-0.154,2.466c-0.377,0.65-0.899,1.088-1.567,1.311
		s-1.396,0.197-2.184-0.077c-0.789-0.274-1.474-0.822-2.056-1.644c-0.959,0.719-1.894,1.224-2.801,1.516
		c-0.908,0.29-1.945,0.453-3.109,0.488c-1.747,0.068-3.307-0.129-4.676-0.591c-1.371-0.463-2.527-1.156-3.469-2.082
		c-0.942-0.925-1.636-2.081-2.081-3.468c-0.446-1.388-0.6-2.989-0.462-4.805c0.068-0.754,0.197-1.49,0.385-2.21
		c0.188-0.72,0.402-1.421,0.643-2.107c0.273-0.753,0.659-1.559,1.156-2.415c0.496-0.855,1.002-1.593,1.516-2.209
		c1.85-2.262,4.163-3.889,6.938-4.882c0.479-0.172,1.13-0.325,1.953-0.463c0.822-0.137,1.652-0.196,2.492-0.18
		c0.839,0.018,1.645,0.128,2.416,0.334c0.771,0.205,1.344,0.565,1.721,1.079c0.309,0.411,0.531,0.771,0.668,1.079
		c0.137,0.309,0.214,0.634,0.231,0.977c0.017,0.343,0.017,0.711,0,1.104c-0.018,0.395-0.026,0.883-0.026,1.465
		c0,0.959-0.009,1.893-0.025,2.801c-0.018,0.907-0.009,1.824,0.025,2.749c0,0.308,0,0.711,0,1.207c0,0.497,0.017,1.021,0.052,1.567
		c0.034,0.549,0.077,1.071,0.128,1.567c0.051,0.497,0.128,0.899,0.231,1.208L80.41,41.4z M69.516,39.088
		c0.376-0.239,0.804-0.505,1.285-0.797c0.479-0.29,0.907-0.625,1.285-1.002c-0.309-1.815-0.488-3.631-0.54-5.447
		c-0.052-1.815-0.043-3.648,0.025-5.498c-1.542,0.274-2.929,0.942-4.162,2.004c-1.233,1.062-2.09,2.312-2.569,3.751
		c-0.206,0.583-0.377,1.183-0.514,1.799c-0.137,0.617-0.188,1.217-0.154,1.799c0.034,0.788,0.239,1.447,0.616,1.979
		s0.831,0.934,1.362,1.207c0.531,0.274,1.096,0.429,1.696,0.463C68.445,39.379,69.002,39.293,69.516,39.088z"/>
	<path fill="#FFFFFF" d="M91.253,40.476c0.376,0.343,0.693,0.779,0.951,1.31c0.257,0.532,0.393,1.062,0.411,1.594
		c0.017,0.53-0.103,1.027-0.359,1.49c-0.257,0.462-0.711,0.812-1.362,1.053c-0.514,0.171-1.079,0.206-1.696,0.104
		c-0.617-0.104-1.225-0.309-1.824-0.617c-0.6-0.309-1.13-0.677-1.593-1.104c-0.462-0.429-0.796-0.899-1.002-1.413
		c-0.069-0.171-0.12-0.368-0.154-0.591s-0.051-0.42-0.051-0.592v-28.52c0-0.788,0.3-1.456,0.899-2.004
		c0.599-0.548,1.259-0.874,1.979-0.977c0.342-0.034,0.71,0.018,1.104,0.154c0.394,0.137,0.762,0.334,1.105,0.591
		c0.342,0.257,0.625,0.558,0.848,0.899c0.222,0.343,0.334,0.702,0.334,1.079c0,0.891,0,2.073,0,3.546s0.008,3.083,0.025,4.83
		c0.017,1.747,0.026,3.555,0.026,5.421c0,1.868-0.009,3.658-0.026,5.37c-0.018,1.714-0.025,3.281-0.025,4.702
		c0,1.422-0.018,2.562-0.052,3.417L91.253,40.476z"/>
	<path fill="#FFFFFF" d="M95.98,31.38c0.239-0.993,0.573-1.97,1.002-2.93c0.428-0.958,0.951-1.875,1.567-2.749
		c0.617-0.873,1.31-1.67,2.081-2.39c0.771-0.719,1.601-1.302,2.492-1.747c1.576-0.822,3.161-1.241,4.754-1.259
		c1.592-0.017,3.074,0.3,4.445,0.95c1.369,0.651,2.533,1.619,3.494,2.903c0.959,1.285,1.592,2.818,1.9,4.6
		c0.172,1.165,0.266,2.27,0.283,3.314c0.018,1.046-0.096,2.133-0.334,3.263c-0.344,1.611-1.037,3.212-2.082,4.805
		c-1.045,1.594-2.295,2.93-3.75,4.009c-1.457,1.079-3.051,1.79-4.779,2.133c-1.73,0.342-3.469,0.068-5.216-0.822
		c-0.789-0.378-1.499-0.814-2.132-1.311c-0.634-0.496-1.208-1.087-1.722-1.773c-0.583-0.753-1.037-1.541-1.362-2.363
		c-0.326-0.822-0.591-1.678-0.796-2.569c-0.24-0.959-0.326-1.927-0.257-2.903c0.068-0.977,0.188-1.927,0.36-2.853L95.98,31.38z
		 M102.147,32.459c-0.103,0.548-0.189,1.088-0.257,1.618c-0.069,0.532-0.069,1.071,0,1.619c0.103,0.788,0.316,1.508,0.642,2.158
		c0.325,0.651,0.753,1.165,1.285,1.541c0.531,0.378,1.139,0.574,1.824,0.592c0.685,0.018,1.421-0.197,2.21-0.643
		c0.992-0.582,1.85-1.481,2.568-2.698c0.719-1.216,1.164-2.483,1.336-3.803c0.172-1.318,0.033-2.569-0.41-3.751
		c-0.445-1.182-1.32-2.029-2.621-2.544c-0.857,0-1.645,0.163-2.364,0.488c-0.72,0.326-1.345,0.754-1.876,1.285
		c-0.531,0.531-0.994,1.156-1.387,1.875C102.703,30.917,102.386,31.671,102.147,32.459z"/>
	<path fill="#F26522" d="M157.079,42.325c-0.103,0.754-0.377,1.396-0.822,1.927s-0.959,0.899-1.541,1.104
		c-0.583,0.206-1.183,0.214-1.799,0.026c-0.616-0.188-1.131-0.643-1.542-1.362c-0.343-0.582-0.539-1.189-0.591-1.824
		c-0.051-0.633-0.111-1.292-0.18-1.979c-0.069-0.753-0.146-1.413-0.231-1.978c-0.086-0.565-0.18-1.225-0.282-1.979
		c-0.309-2.056-0.651-4.086-1.028-6.09s-0.805-4.017-1.284-6.038c-0.686,1.714-1.336,3.409-1.953,5.088
		c-0.616,1.679-1.233,3.374-1.85,5.087c-0.48,1.268-0.951,2.544-1.413,3.828c-0.463,1.285-1.002,2.527-1.619,3.726
		c-0.205,0.411-0.548,0.745-1.027,1.002c-0.48,0.257-0.994,0.403-1.542,0.438s-1.062-0.043-1.541-0.231
		c-0.48-0.188-0.84-0.505-1.079-0.951c-1.474-2.843-2.93-5.669-4.368-8.479c-1.438-2.809-2.878-5.635-4.316-8.479
		c-0.172,1.747-0.326,3.503-0.463,5.267c-0.137,1.765-0.291,3.521-0.462,5.268c-0.035,0.548-0.069,1.216-0.104,2.004
		s-0.095,1.585-0.18,2.39c-0.086,0.806-0.188,1.576-0.309,2.312c-0.12,0.737-0.316,1.311-0.591,1.722
		c-0.411,0.685-0.95,1.13-1.618,1.336c-0.668,0.205-1.319,0.222-1.953,0.051c-0.634-0.172-1.165-0.522-1.593-1.053
		c-0.429-0.532-0.626-1.208-0.591-2.03c0.068-1.404,0.188-2.792,0.359-4.162c0.171-1.37,0.325-2.758,0.463-4.162
		c0.273-3.049,0.557-6.081,0.848-9.096s0.573-6.064,0.848-9.147c0.068-0.891,0.248-1.713,0.54-2.467
		c0.29-0.753,0.916-1.284,1.875-1.593c0.377-0.137,0.771-0.188,1.183-0.154c0.411,0.035,0.787,0.154,1.13,0.36
		c0.754,0.479,1.345,1.139,1.773,1.979c0.428,0.84,0.83,1.636,1.207,2.389c0.65,1.233,1.285,2.476,1.901,3.726
		c0.617,1.251,1.233,2.493,1.851,3.726c0.753,1.576,1.516,3.127,2.286,4.651c0.771,1.524,1.567,3.058,2.39,4.599
		c0.206-0.514,0.402-1.027,0.591-1.541c0.188-0.515,0.386-1.028,0.591-1.542c0.377-0.891,0.728-1.79,1.054-2.698
		c0.325-0.907,0.659-1.807,1.002-2.697c0.479-1.164,0.934-2.312,1.362-3.443c0.428-1.131,0.848-2.277,1.259-3.442
		c0.342-0.856,0.668-1.781,0.977-2.775c0.308-0.993,0.805-1.832,1.49-2.518c0.479-0.515,1.002-0.822,1.567-0.926
		c0.564-0.103,1.096-0.059,1.593,0.129c0.496,0.188,0.941,0.506,1.336,0.95c0.394,0.446,0.676,0.96,0.848,1.542
		c0.206,0.788,0.445,1.679,0.72,2.672c0.273,0.994,0.514,1.885,0.72,2.673c0.376,1.438,0.719,2.852,1.027,4.239
		s0.599,2.801,0.874,4.239c0.479,2.364,0.898,4.702,1.259,7.015c0.359,2.312,0.676,4.65,0.95,7.015V42.325z"/>
	<path fill="#F26522" d="M182.413,41.4c0.273,0.994,0.223,1.816-0.154,2.466c-0.377,0.65-0.899,1.088-1.567,1.311
		s-1.396,0.197-2.184-0.077c-0.789-0.274-1.474-0.822-2.056-1.644c-0.96,0.719-1.894,1.224-2.801,1.516
		c-0.908,0.29-1.944,0.453-3.108,0.488c-1.748,0.068-3.307-0.129-4.677-0.591c-1.37-0.463-2.526-1.156-3.469-2.082
		c-0.942-0.925-1.636-2.081-2.081-3.468c-0.445-1.388-0.6-2.989-0.463-4.805c0.068-0.754,0.197-1.49,0.386-2.21
		c0.188-0.72,0.402-1.421,0.643-2.107c0.273-0.753,0.659-1.559,1.156-2.415c0.496-0.855,1.002-1.593,1.516-2.209
		c1.85-2.262,4.162-3.889,6.938-4.882c0.479-0.172,1.131-0.325,1.953-0.463c0.821-0.137,1.652-0.196,2.492-0.18
		c0.839,0.018,1.644,0.128,2.415,0.334c0.771,0.205,1.344,0.565,1.722,1.079c0.308,0.411,0.53,0.771,0.668,1.079
		c0.136,0.309,0.213,0.634,0.23,0.977s0.018,0.711,0,1.104c-0.018,0.395-0.025,0.883-0.025,1.465c0,0.959-0.009,1.893-0.025,2.801
		c-0.018,0.907-0.009,1.824,0.025,2.749c0,0.308,0,0.711,0,1.207c0,0.497,0.017,1.021,0.052,1.567
		c0.033,0.549,0.077,1.071,0.128,1.567c0.052,0.497,0.129,0.899,0.231,1.208L182.413,41.4z M171.519,39.088
		c0.377-0.239,0.805-0.505,1.285-0.797c0.479-0.29,0.907-0.625,1.284-1.002c-0.308-1.815-0.488-3.631-0.539-5.447
		c-0.052-1.815-0.044-3.648,0.025-5.498c-1.541,0.274-2.929,0.942-4.162,2.004c-1.233,1.062-2.09,2.312-2.569,3.751
		c-0.206,0.583-0.378,1.183-0.514,1.799c-0.138,0.617-0.189,1.217-0.154,1.799c0.033,0.788,0.239,1.447,0.616,1.979
		s0.83,0.934,1.362,1.207c0.53,0.274,1.096,0.429,1.695,0.463S171.005,39.293,171.519,39.088z"/>
	<path fill="#F26522" d="M186.678,26.549c-0.686-0.171-1.276-0.462-1.772-0.873c-0.497-0.411-0.84-0.891-1.027-1.439
		c-0.189-0.547-0.189-1.112,0-1.695c0.188-0.582,0.607-1.113,1.259-1.593c0.548-0.411,1.164-0.617,1.85-0.617s1.354,0,2.004,0
		c0-0.239-0.018-0.762-0.051-1.567c-0.035-0.805-0.044-1.687-0.026-2.646c0.018-0.958,0.077-1.875,0.181-2.749
		c0.103-0.873,0.29-1.481,0.564-1.824c0.686-0.959,1.533-1.413,2.544-1.361c1.011,0.051,1.842,0.539,2.492,1.464
		c0.137,0.172,0.266,0.378,0.386,0.617c0.119,0.24,0.18,0.462,0.18,0.668c0.034,1.233,0.043,2.467,0.025,3.7
		c-0.018,1.232-0.025,2.466-0.025,3.699h4.06c0.617,0,1.147,0.206,1.593,0.617s0.763,0.891,0.951,1.438
		c0.188,0.549,0.239,1.113,0.154,1.696c-0.086,0.582-0.352,1.062-0.797,1.438c-0.788,0.651-1.704,0.994-2.749,1.027
		c-1.046,0.035-2.116,0.052-3.212,0.052c0,1.885-0.009,3.769-0.025,5.652c-0.018,1.885-0.009,3.77,0.025,5.652
		c0,0.822,0.043,1.662,0.129,2.519c0.085,0.856,0.025,1.679-0.18,2.467c-0.172,0.616-0.463,1.104-0.874,1.464
		c-0.411,0.36-0.874,0.582-1.388,0.668s-1.045,0.052-1.593-0.103c-0.549-0.154-1.062-0.437-1.542-0.848
		c-0.239-0.24-0.42-0.65-0.539-1.233c-0.121-0.582-0.197-1.198-0.231-1.85c-0.034-0.753-0.034-1.559,0-2.415
		c0-0.686,0-1.576,0-2.673c0-1.096-0.009-2.235-0.025-3.417c-0.018-1.182-0.026-2.304-0.026-3.366c0-1.062,0-1.901,0-2.518
		L186.678,26.549z"/>
</g>
</svg>
