<?xml version="1.0" encoding="utf-8"?>
<!-- Generator: Adobe Illustrator 16.0.0, SVG Export Plug-In . SVG Version: 6.00 Build 0)  -->
<!DOCTYPE svg PUBLIC "-//W3C//DTD SVG 1.1//EN" "http://www.w3.org/Graphics/SVG/1.1/DTD/svg11.dtd">
<svg version="1.1" id="Layer_1" xmlns="http://www.w3.org/2000/svg" xmlns:xlink="http://www.w3.org/1999/xlink" x="0px" y="0px"
	 width="30px" height="30px" viewBox="0 0 30 30" enable-background="new 0 0 30 30" xml:space="preserve">
<g>
	<path fill="#808285" d="M26.826,19.29v-8.002 M26.826,19.29v-8.002 M1.487,19.29v-8.002 M28.159,19.29v-8.002 M19.156,18.957H10.49
		c-0.368,0-0.668,0.3-0.668,0.667c0,0.366,0.3,0.667,0.668,0.667h8.667c0.367,0,0.667-0.301,0.667-0.667
		C19.823,19.257,19.523,18.957,19.156,18.957L19.156,18.957z M19.156,22.292H10.49c-0.368,0-0.668,0.299-0.668,0.665
		s0.3,0.668,0.668,0.668h8.667c0.367,0,0.667-0.302,0.667-0.668S19.523,22.292,19.156,22.292L19.156,22.292z M19.156,18.957H10.49
		c-0.368,0-0.668,0.3-0.668,0.667c0,0.366,0.3,0.667,0.668,0.667h8.667c0.367,0,0.667-0.301,0.667-0.667
		C19.823,19.257,19.523,18.957,19.156,18.957L19.156,18.957z M19.156,22.292H10.49c-0.368,0-0.668,0.299-0.668,0.665
		s0.3,0.668,0.668,0.668h8.667c0.367,0,0.667-0.302,0.667-0.668S19.523,22.292,19.156,22.292L19.156,22.292z M19.156,22.292H10.49
		c-0.368,0-0.668,0.299-0.668,0.665s0.3,0.668,0.668,0.668h8.667c0.367,0,0.667-0.302,0.667-0.668S19.523,22.292,19.156,22.292
		L19.156,22.292z M19.156,18.957H10.49c-0.368,0-0.668,0.3-0.668,0.667c0,0.366,0.3,0.667,0.668,0.667h8.667
		c0.367,0,0.667-0.301,0.667-0.667C19.823,19.257,19.523,18.957,19.156,18.957L19.156,18.957z M10.49,20.291h8.667
		c0.367,0,0.667-0.301,0.667-0.667c0-0.367-0.3-0.667-0.667-0.667H10.49c-0.368,0-0.668,0.3-0.668,0.667
		C9.821,19.99,10.122,20.291,10.49,20.291L10.49,20.291z M19.156,22.292H10.49c-0.368,0-0.668,0.299-0.668,0.665
		s0.3,0.668,0.668,0.668h8.667c0.367,0,0.667-0.302,0.667-0.668S19.523,22.292,19.156,22.292L19.156,22.292z M25.491,8.622h-2.334
		V3.955c0-0.369-0.299-0.667-0.668-0.667H7.156c-0.368,0-0.668,0.299-0.668,0.667v4.667H4.153c-1.467,0-2.667,1.199-2.667,2.666
		v8.002c0,1.468,1.2,2.667,2.667,2.667h2.334v4.001c0,0.368,0.3,0.667,0.668,0.667h15.333c0.369,0,0.668-0.299,0.668-0.667v-4.001
		h2.334c1.468,0,2.668-1.199,2.668-2.667v-8.002C28.159,9.821,26.959,8.622,25.491,8.622L25.491,8.622z M7.821,4.621h14.003v4.001
		H7.821V4.621z M21.824,25.291H7.821v-8h14.003V25.291z M26.826,19.29c0,0.734-0.602,1.334-1.335,1.334h-2.334v-4.002
		c0-0.365-0.299-0.667-0.668-0.667H7.156c-0.368,0-0.668,0.302-0.668,0.667v4.002H4.153c-0.732,0-1.333-0.6-1.333-1.334v-8.002
		c0-0.732,0.601-1.333,1.333-1.333h21.338c0.733,0,1.335,0.601,1.335,1.333V19.29z M10.49,20.291h8.667
		c0.367,0,0.667-0.301,0.667-0.667c0-0.367-0.3-0.667-0.667-0.667H10.49c-0.368,0-0.668,0.3-0.668,0.667
		C9.821,19.99,10.122,20.291,10.49,20.291L10.49,20.291z M10.49,23.625h8.667c0.367,0,0.667-0.302,0.667-0.668
		s-0.3-0.665-0.667-0.665H10.49c-0.368,0-0.668,0.299-0.668,0.665S10.122,23.625,10.49,23.625L10.49,23.625z M19.156,22.292H10.49
		c-0.368,0-0.668,0.299-0.668,0.665s0.3,0.668,0.668,0.668h8.667c0.367,0,0.667-0.302,0.667-0.668S19.523,22.292,19.156,22.292
		L19.156,22.292z M19.156,18.957H10.49c-0.368,0-0.668,0.3-0.668,0.667c0,0.366,0.3,0.667,0.668,0.667h8.667
		c0.367,0,0.667-0.301,0.667-0.667C19.823,19.257,19.523,18.957,19.156,18.957L19.156,18.957z M19.156,18.957H10.49
		c-0.368,0-0.668,0.3-0.668,0.667c0,0.366,0.3,0.667,0.668,0.667h8.667c0.367,0,0.667-0.301,0.667-0.667
		C19.823,19.257,19.523,18.957,19.156,18.957L19.156,18.957z M19.156,22.292H10.49c-0.368,0-0.668,0.299-0.668,0.665
		s0.3,0.668,0.668,0.668h8.667c0.367,0,0.667-0.302,0.667-0.668S19.523,22.292,19.156,22.292L19.156,22.292z M19.156,22.292"/>
</g>
</svg>
