<?xml version="1.0" encoding="utf-8"?>
<!-- Generator: Adobe Illustrator 16.0.0, SVG Export Plug-In . SVG Version: 6.00 Build 0)  -->
<!DOCTYPE svg PUBLIC "-//W3C//DTD SVG 1.1//EN" "http://www.w3.org/Graphics/SVG/1.1/DTD/svg11.dtd">
<svg version="1.1" id="Layer_1" xmlns="http://www.w3.org/2000/svg" xmlns:xlink="http://www.w3.org/1999/xlink" x="0px" y="0px"
	 width="50px" height="50px" viewBox="0 0 50 50" enable-background="new 0 0 50 50" xml:space="preserve">
<g>
	<g>
		<defs>
			<rect id="SVGID_1_" x="78.778" y="-1.333" width="26.285" height="38.167"/>
		</defs>
		<clipPath id="SVGID_2_">
			<use xlink:href="#SVGID_1_"  overflow="visible"/>
		</clipPath>
		<path clip-path="url(#SVGID_2_)" fill="#FFFFFF" d="M102.697,4.635H81.319c-1.399,0-2.541,0.164-2.541,1.298l1.523,28.477
			c0,1.133,1.134,2.055,2.541,2.055h17.826c1.399,0,2.534-0.922,2.534-2.055l2.035-28.477
			C105.238,4.799,104.104,4.635,102.697,4.635L102.697,4.635z"/>
		<path clip-path="url(#SVGID_2_)" fill="#FFFFFF" d="M80.405,3.728h23.199c0.901,0,1.634-0.731,1.634-1.632
			c0-0.895-0.732-1.627-1.634-1.627h-6.093c0-0.999-0.804-1.802-1.802-1.802h-7.403c-0.998,0-1.802,0.803-1.802,1.802h-6.093
			c-0.901,0-1.634,0.726-1.634,1.627C78.778,2.997,79.511,3.728,80.405,3.728L80.405,3.728z M80.405,3.728"/>
		<path clip-path="url(#SVGID_2_)" fill="#F16822" d="M98.775,20.771l1.018,2.404c0,0.13-0.109,0.24-0.239,0.24h-2.295
			c-0.13,0-0.389-0.116-0.492-0.24l-0.623-1.276c-0.116-0.201,0.007-0.279,0.188-0.351l2.062-0.959
			C98.691,20.44,98.775,20.771,98.775,20.771L98.775,20.771z"/>
		<path clip-path="url(#SVGID_2_)" fill="#F16822" d="M91.275,13.226c0.254-0.143,2.723-0.616,2.904-0.721
			c0.182-0.102,0.253,0.041,0.253,0.041c0.344,0.595,1.504,2.625,1.964,3.427c0.149,0.266,0.247,0.436,0.247,0.436
			s0.628-0.357,1.018-0.585c0.389-0.219,0.266,0.241,0.266,0.241s-0.875,3.419-0.973,3.792c-0.071,0.256-0.337,0.162-0.337,0.162
			l-3.779-0.966c0,0-0.46-0.11-0.136-0.298c0.324-0.182,1.102-0.631,1.102-0.631s-0.11-0.187-0.272-0.478
			c-0.479-0.83-2.021-3.513-2.372-4.135C91.159,13.511,91.023,13.375,91.275,13.226L91.275,13.226z"/>
		<path clip-path="url(#SVGID_2_)" fill="#F16822" d="M90.35,26.676c0.012,0.33-0.318,0.266-0.318,0.266l-2.612-0.104
			c-0.123-0.059-0.169-0.201-0.116-0.324l0.979-2.068c0.059-0.123,0.271-0.298,0.428-0.343l1.42-0.02
			c0.227-0.029,0.246,0.129,0.24,0.314L90.35,26.676z"/>
		<path clip-path="url(#SVGID_2_)" fill="#F16822" d="M90.207,22.187c-0.331-0.152-1.142-0.541-1.142-0.541
			s-0.097,0.201-0.239,0.499c-0.408,0.865-1.731,3.669-2.035,4.31c0,0-0.033,0.195-0.299,0.072c-0.266-0.131-2.068-1.88-2.25-1.971
			c-0.193-0.087-0.116-0.233-0.116-0.233c0.292-0.622,1.29-2.735,1.686-3.571c0.13-0.272,0.214-0.454,0.214-0.454
			s-0.654-0.305-1.062-0.499c-0.408-0.188,0.045-0.35,0.045-0.35s3.306-1.245,3.662-1.374c0.26-0.093,0.338,0.181,0.338,0.181
			l1.367,3.65C90.375,21.906,90.543,22.346,90.207,22.187L90.207,22.187z"/>
		<path clip-path="url(#SVGID_2_)" fill="#F16822" d="M90.797,17.619l-1.854-1.314c-0.278-0.182-0.032-0.415-0.032-0.415
			l1.582-2.081c0.109-0.065,0.259-0.026,0.324,0.089l1.141,1.992c0.064,0.116,0.09,0.389,0.031,0.544l-0.797,1.18
			C91.082,17.809,90.951,17.737,90.797,17.619L90.797,17.619z"/>
		<path clip-path="url(#SVGID_2_)" fill="#F16822" d="M99.087,27.023c0,0.207-0.162,0.203-0.162,0.203h-4.446V28.4
			c0,0.453-0.338,0.109-0.338,0.109s-2.541-2.463-2.807-2.73c-0.194-0.186,0.02-0.374,0.02-0.374l2.723-2.794
			c0,0,0.317-0.344,0.317,0.026v1.271h5.322c0,0,0.194-0.053,0.194,0.239C99.903,24.44,99.087,26.812,99.087,27.023L99.087,27.023z"
			/>
		<path clip-path="url(#SVGID_2_)" fill="#FFFFFF" d="M99.087,27.023"/>
	</g>
</g>
<g>
	<path fill="#FFFFFF" d="M40.943,20.577L38.419,8.804H11.807L9.283,20.577h-4.68V39.01h2.739v5.407h8.178V39.01h19.192v5.407h8.179
		V39.01h2.739V20.577H40.943z M12.909,30.112h-5.59V24.52h5.59V30.112z M31.215,31.422h-4.466v4.465h-3.274v-4.465h-4.456v-3.266
		h4.456v-4.457h3.274v4.457h4.466V31.422z M31.023,20.577c0.104-1.248,1.149-2.237,2.427-2.237c1.279,0,2.316,0.989,2.428,2.237
		H31.023z M33.45,16.701c-2.18,0-3.952,1.719-4.065,3.875H12.43l1.821-8.506h21.723l1.822,8.506h-0.279
		C37.396,18.428,35.632,16.701,33.45,16.701L33.45,16.701z M42.907,30.112h-5.591V24.52h5.591V30.112z M42.907,30.112"/>
	<path fill="#FFFFFF" d="M19.786,7.843h10.663c0.846,0,1.533-0.732,1.533-1.637c0-0.901-0.688-1.635-1.533-1.635H19.786
		c-0.847,0-1.533,0.734-1.533,1.635C18.252,7.111,18.939,7.843,19.786,7.843L19.786,7.843z M19.786,7.843"/>
</g>
</svg>
